…
## number of transcripts in each cluster

   1    2    3    4    5    6    7    8    9   10 
2476 2246 2207 2689 2051 2718 2821 2379 3001 2252
```

### 2.1 Orthogroup

A total of `12498` orthogroups were detected from Eik's analysis. Each orthogroup contains at least two transcripts, one is from At and the other is from Lj. 

```
# A tibble: 20,152 x 5
   athID       athcl Orthogroup lotusID              lotuscl
   <chr>       <dbl> <chr>      <chr>                  <dbl>
 1 AT2G25730.2     2 OG0001627  LotjaGi1g1v0391000.1      10
 2 AT3G62150.3     8 OG0000909  LotjaGi5g1v0238400.1       9
 3 AT3G62150.3     8 OG0000909  LotjaGi5g1v0238400.2       9
 4 AT3G48060.3     8 OG0001635  LotjaGi1g1v0183300.1       7
 5 AT1G06410.2     8 OG0003173  LotjaGi3g1v0253100.1       9
 6 AT4G31970.1     9 OG0006747  LotjaGi1g1v0349800.1       3
 7 AT3G25820.3     4 OG0000069  LotjaGi4g1v0043400.1       7
 8 AT5G49960.1     8 OG0006150  LotjaGi6g1v0363700.3       1
 9 AT2G25730.3    10 OG0001627  LotjaGi1g1v0391000.1      10
10 AT5G13800.3     8 OG0001729  LotjaGi3g1v0117700.1      10
# … with 20,142 more rows
```
…
The merged cluster and annotation table is:

```
# A tibble: 20,455 x 4
   athID       athcl lotusID              lotuscl
   <chr>       <dbl> <chr>                  <dbl>
 1 AT2G25730.2     2 LotjaGi1g1v0391000.1      10
 2 AT4G31970.1     9 LotjaGi3g1v0092600.1       7
 3 AT5G49960.1     8 LotjaGi1g1v0800800.1       1
 4 AT5G49960.1     8 LotjaGi1g1v0800800.5       7
 5 AT5G49960.1     8 LotjaGi6g1v0363700.1       3
 6 AT5G49960.1     8 LotjaGi6g1v0363700.3       1
 7 AT5G13800.3     8 LotjaGi3g1v0117700.1      10
 8 AT5G13800.3     8 LotjaGi3g1v0117700.2      10
 9 AT4G02570.1     2 LotjaGi6g1v0248100.1       3
10 AT4G02570.1     2 LotjaGi6g1v0248100.5       3
# … with 20,445 more rows
```
…
